CoinCharger/Translate/simulation/qsim/Translate.msim.vcd
$comment
	File created using the following command:
		vcd file Translate.msim.vcd -direction
$end
$date
	Fri Jun 14 09:44:27 2024
$end
$version
	ModelSim Version 10.1d
$end
$timescale
	1ps
$end
$scope module Translate_vlg_vec_tst $end
$var reg 4 ! n [3:0] $end
$var wire 1 " a $end
$var wire 1 # b $end
$var wire 1 $ c $end
$var wire 1 % d $end
$var wire 1 & e $end
$var wire 1 ' f $end
$var wire 1 ( g $end
$var wire 1 ) sampler $end
$scope module i1 $end
$var wire 1 * gnd $end
$var wire 1 + vcc $end
$var wire 1 , unknown $end
$var tri1 1 - devclrn $end
$var tri1 1 . devpor $end
$var tri1 1 / devoe $end
$var wire 1 0 n[3]~input_o $end
$var wire 1 1 a~output_o $end
$var wire 1 2 b~output_o $end
$var wire 1 3 c~output_o $end
$var wire 1 4 d~output_o $end
$var wire 1 5 e~output_o $end
$var wire 1 6 f~output_o $end
$var wire 1 7 g~output_o $end
$var wire 1 8 n[1]~input_o $end
$var wire 1 9 n[2]~input_o $end
$var wire 1 : n[0]~input_o $end
$var wire 1 ; Mux6~0_combout $end
$var wire 1 < Mux7~0_combout $end
$var wire 1 = Mux7~0clkctrl_outclk $end
$var wire 1 > a$latch~combout $end
$var wire 1 ? Mux5~0_combout $end
$var wire 1 @ b$latch~combout $end
$var wire 1 A Mux4~0_combout $end
$var wire 1 B c$latch~combout $end
$var wire 1 C Mux3~0_combout $end
$var wire 1 D d$latch~combout $end
$var wire 1 E Mux2~0_combout $end
$var wire 1 F e$latch~combout $end
$var wire 1 G Mux1~0_combout $end
$var wire 1 H f$latch~combout $end
$var wire 1 I Mux0~0_combout $end
$var wire 1 J g$latch~combout $end
$upscope $end
$upscope $end
$enddefinitions $end
#0
$dumpvars
b0 !
x"
x#
x$
x%
x&
x'
x(
x)
0*
1+
x,
1-
1.
1/
00
x1
x2
x3
x4
x5
x6
x7
08
09
0:
0;
0<
0=
x>
0?
x@
1A
xB
1C
xD
0E
xF
0G
xH
0I
xJ
$end
#40000
b10 !
b11 !
1:
18
0)
1E
0C
0A
1?
1<
1=
1F
0D
0B
1@
0J
0H
0>
15
04
03
12
07
06
01
1&
0%
0$
1#
0(
0'
0"
#100000
b1 !
b0 !
0:
08
1)
0E
1C
1A
0?
0<
0=
#200000
b1000 !
b1001 !
1:
10
0)
0C
0A
1<
1=
0F
0@
05
02
0&
0#
#240000
b1 !
b0 !
0:
00
1)
1C
1A
0<
0=
#360000
b100 !
b110 !
18
19
0)
1G
0C
1<
1=
1H
1B
16
13
1'
1$
#620000
b10 !
b0 !
08
09
1)
0G
1C
0<
0=
#680000
b10 !
18
0)
1I
1G
1E
0A
1?
1<
1;
1=
1J
1F
0B
1@
1>
1D
17
15
03
12
11
14
1(
1&
0$
1#
1"
1%
#880000
b0 !
08
1)
0I
0G
0E
1A
0?
0<
0;
0=
