CoinCharger/BtoD/simulation/qsim/BtoD.msim.vcd
$comment
	File created using the following command:
		vcd file BtoD.msim.vcd -direction
$end
$date
	Fri Jun 14 09:26:22 2024
$end
$version
	ModelSim Version 10.1d
$end
$timescale
	1ps
$end
$scope module BtoD_vlg_vec_tst $end
$var reg 1 ! n_0 $end
$var reg 1 " n_1 $end
$var reg 1 # n_2 $end
$var reg 1 $ n_3 $end
$var reg 1 % n_4 $end
$var reg 1 & n_5 $end
$var reg 1 ' n_6 $end
$var reg 1 ( n_7 $end
$var reg 1 ) n_8 $end
$var reg 1 * n_9 $end
$var wire 1 + N [3] $end
$var wire 1 , N [2] $end
$var wire 1 - N [1] $end
$var wire 1 . N [0] $end
$var wire 1 / sampler $end
$scope module i1 $end
$var wire 1 0 gnd $end
$var wire 1 1 vcc $end
$var wire 1 2 unknown $end
$var tri1 1 3 devclrn $end
$var tri1 1 4 devpor $end
$var tri1 1 5 devoe $end
$var wire 1 6 n_4~input_o $end
$var wire 1 7 n_7~input_o $end
$var wire 1 8 N[0]~output_o $end
$var wire 1 9 N[1]~output_o $end
$var wire 1 : N[2]~output_o $end
$var wire 1 ; N[3]~output_o $end
$var wire 1 < n_2~input_o $end
$var wire 1 = n_1~input_o $end
$var wire 1 > n_0~input_o $end
$var wire 1 ? n_3~input_o $end
$var wire 1 @ n_6~input_o $end
$var wire 1 A n_8~input_o $end
$var wire 1 B n_5~input_o $end
$var wire 1 C N~2_combout $end
$var wire 1 D N~3_combout $end
$var wire 1 E N~4_combout $end
$var wire 1 F n_9~input_o $end
$var wire 1 G N~6_combout $end
$var wire 1 H N~7_combout $end
$var wire 1 I N~8_combout $end
$var wire 1 J N~10_combout $end
$var wire 1 K N~12_combout $end
$var wire 1 L N~5_combout $end
$var wire 1 M N~9_combout $end
$var wire 1 N N~11_combout $end
$upscope $end
$upscope $end
$enddefinitions $end
#0
$dumpvars
0!
0"
0#
0$
0%
0&
0'
0(
0)
0*
0.
0-
0,
0+
x/
00
11
x2
13
14
15
06
07
08
09
0:
0;
0<
0=
0>
0?
0@
0A
0B
0C
0D
0E
0F
0G
0H
0I
1J
0K
1L
1M
0N
$end
#40000
1!
1>
0/
0M
1E
18
1.
#80000
1"
0!
1=
0>
1/
1I
0E
19
08
1-
0.
#120000
0"
0=
0/
1M
0I
09
0-
#140000
1#
1<
1/
0M
1I
1E
19
18
1-
1.
#180000
1$
0#
1?
0<
0/
0J
1M
0I
0E
09
08
0-
0.
1K
1:
1,
#220000
1%
0$
16
0?
1/
1D
1E
18
1.
#280000
0%
06
0/
1J
0D
0K
0E
0:
08
0,
0.
#300000
1&
1B
1/
0J
1G
1H
1K
1:
1,
1I
19
1-
#340000
1'
0&
1@
0B
0/
1C
1D
1E
18
1.
#400000
1(
0'
17
0@
1/
0L
0C
1J
0G
0D
0H
1N
0K
1;
0:
1+
0,
0E
0I
08
09
0.
0-
#480000
1)
0(
1A
07
0/
1C
1D
1E
18
1.
#560000
1*
0)
1F
0A
1/
1L
0C
1G
0D
1H
0E
08
0.
1I
19
1-
#640000
0*
0F
0/
0G
0N
0H
0;
0+
0I
09
0-
